{
    "read_files": "[ 2hr_control_2.fq.gz ]",
    "expected_format": "SR",
    "compatible_fragment_ratio": 1.0,
    "num_compatible_fragments": 33456371,
    "num_assigned_fragments": 33456371,
    "num_frags_with_concordant_consistent_mappings": 33456263,
    "num_frags_with_inconsistent_or_orphan_mappings": 330,
    "strand_mapping_bias": 0.000009863526749421258,
    "MSF": 0,
    "OSF": 0,
    "ISF": 0,
    "MSR": 0,
    "OSR": 0,
    "ISR": 0,
    "SF": 330,
    "SR": 33456263,
    "MU": 0,
    "OU": 0,
    "IU": 0,
    "U": 0
}