{
    "salmon_version": "1.2.1",
    "samp_type": "none",
    "opt_type": "vb",
    "quant_errors": [],
    "num_libraries": 1,
    "library_types": [
        "SR"
    ],
    "frag_dist_length": 1001,
    "seq_bias_correct": false,
    "gc_bias_correct": false,
    "num_bias_bins": 4096,
    "mapping_type": "mapping",
    "keep_duplicates": false,
    "num_valid_targets": 41086,
    "num_decoy_targets": 7,
    "num_eq_classes": 50735,
    "serialized_eq_classes": false,
    "eq_class_properties": [
        "range_factorized",
        "gzipped"
    ],
    "length_classes": [
        742,
        1173,
        1576,
        2166,
        16347
    ],
    "index_seq_hash": "a4e484122836c2050254bfd5f11a459fa5bbf6689b7ea8baa25dd7226612e546",
    "index_name_hash": "6816a33e49e79c5263d193ef671dcd975023ad2f91ebb2bfba306c3bf98e3da5",
    "index_seq_hash512": "19d7b0fe3ed2351fef47eac84b3c4a227aa688a2d39d3f1eddf19ff2eac04ef0597e32f0a29658b8ddd94087a36eaff48075f53ba677edf72e69ac60cc796a23",
    "index_name_hash512": "05f6f551295395bca3d00fe3171f0c456036ac05226125fe7e243c8a34eee2e487371c0b58c4171eee4bc2d9df63730034789ec4283cd2ed498d346e5d225c55",
    "index_decoy_seq_hash": "def6a75505c63ae3df616eaeae95d74f1735f37f6161fd6e222019fef49de716",
    "index_decoy_name_hash": "341f0feb6cdbb7a469b2c12dffc9924faf80de13b1491f94fda6d5fc05ef4484",
    "num_bootstraps": 0,
    "num_processed": 23617825,
    "num_mapped": 21655817,
    "num_decoy_fragments": 259914,
    "num_dovetail_fragments": 0,
    "num_fragments_filtered_vm": 733123,
    "num_alignments_below_threshold_for_mapped_fragments_vm": 4272491,
    "percent_mapped": 91.69268126933788,
    "call": "quant",
    "start_time": "Sat Jul 04 16:38:15 2020",
    "end_time": "Sat Jul 04 16:39:15 2020"
}